# This file uses centimeters as units for non-parametric coordinates.

mtllib Rune_Part_02.mtl
g default
v -0.520618 3.363803 -0.502624
v -1.496067 4.403266 0.600432
v -1.913828 4.798192 0.238434
v -0.572695 4.604642 0.198536
v -0.697553 4.276547 0.599649
v 0.572695 4.936880 0.222523
v 0.427916 4.576534 0.614727
v -1.913828 4.798192 -0.224585
v -1.480678 4.323224 -0.587379
v -0.572695 4.604642 -0.224926
v -0.520618 4.193453 -0.618399
v 0.572695 4.936880 -0.240751
v 0.503820 4.499617 -0.649155
v -1.653589 2.063039 0.260527
v -1.307838 2.391400 0.614727
v -1.604671 3.430616 0.175226
v -1.294200 3.545249 0.543883
v -1.324052 3.363803 -0.364309
v -1.632052 3.430616 0.098064
v -1.317484 2.140640 -0.543234
v -1.692613 2.063039 -0.134622
vt 0.162082 0.218623
vt 0.076498 0.616580
vt 0.048946 0.385639
vt 0.144578 0.539964
vt 0.296498 0.622832
vt 0.264618 0.519924
vt 0.441523 0.515537
vt 0.026019 0.675840
vt 0.032442 0.385875
vt 0.846027 0.353077
vt 0.737290 0.463943
vt 0.617663 0.501334
vt 0.066742 0.126334
vt 0.150344 0.400099
vt 0.471868 0.569559
vt 0.304029 0.694458
vt 0.538978 0.604957
vt 0.450894 0.197284
vt 0.712443 0.258365
vt 0.152951 0.038601
vt 0.098005 0.173034
vt 0.630934 0.371581
vt 0.536270 0.148578
vt 0.666177 0.629155
vt 0.582031 0.068326
vt 0.776628 0.186370
vt 0.742154 0.695373
vt 0.821887 0.513998
vt 0.969005 0.335799
vn -0.731367 -0.202965 0.651082
vn -0.731367 -0.202965 0.651082
vn -0.731367 -0.202965 0.651082
vn -0.731367 -0.202965 0.651082
vn 0.123800 0.743622 0.657039
vn 0.123800 0.743622 0.657039
vn 0.123800 0.743622 0.657039
vn 0.123800 0.743622 0.657039
vn -0.225272 0.772456 0.593771
vn -0.225272 0.772456 0.593771
vn -0.225272 0.772456 0.593771
vn -0.225272 0.772456 0.593771
vn -0.798085 -0.275972 -0.535631
vn -0.798085 -0.275972 -0.535631
vn -0.798085 -0.275972 -0.535631
vn -0.798085 -0.275972 -0.535631
vn 0.084578 0.673224 -0.734585
vn 0.084578 0.673224 -0.734585
vn 0.084578 0.673224 -0.734585
vn 0.084578 0.673224 -0.734585
vn -0.213294 0.673298 -0.707937
vn -0.213294 0.673298 -0.707937
vn -0.213294 0.673298 -0.707937
vn -0.213294 0.673298 -0.707937
vn -0.756870 0.059086 0.650889
vn -0.756870 0.059086 0.650889
vn -0.756870 0.059086 0.650889
vn -0.756870 0.059086 0.650889
vn -0.782443 0.113584 -0.612277
vn -0.782443 0.113584 -0.612277
vn -0.782443 0.113584 -0.612277
vn -0.782442 0.113584 -0.612276
vn -0.009822 -0.068062 0.997633
vn -0.009822 -0.068062 0.997633
vn -0.009822 -0.068062 0.997633
vn 0.142838 0.989746 0.000000
vn 0.142838 0.989746 0.000000
vn 0.142838 0.989746 0.000000
vn 0.142838 0.989746 0.000000
vn -0.278583 0.960412 0.000000
vn -0.278583 0.960412 0.000000
vn -0.278583 0.960412 0.000000
vn -0.278583 0.960412 0.000000
vn -0.107909 -0.194114 -0.975026
vn -0.107909 -0.194114 -0.975026
vn -0.107909 -0.194114 -0.975026
vn -0.107909 -0.194114 -0.975026
vn 0.011570 -0.138198 -0.990337
vn 0.011570 -0.138198 -0.990337
vn 0.011570 -0.138198 -0.990337
vn -0.167944 0.141801 -0.975545
vn -0.167944 0.141801 -0.975545
vn -0.167944 0.141801 -0.975545
vn -0.989750 0.032117 0.139154
vn -0.989750 0.032117 0.139154
vn -0.989750 0.032117 0.139154
vn -0.989750 0.032117 0.139154
vn -0.977207 -0.206428 0.049533
vn -0.977207 -0.206428 0.049533
vn -0.977207 -0.206428 0.049533
vn -0.977207 -0.206428 0.049533
vn -0.056861 0.026391 0.998033
vn -0.056861 0.026391 0.998033
vn -0.056861 0.026391 0.998033
vn -0.056861 0.026391 0.998033
vn 0.964266 -0.259390 0.053929
vn 0.964266 -0.259390 0.053929
vn 0.964266 -0.259390 0.053929
vn 0.964266 -0.259390 0.053929
vn 0.830997 -0.545067 0.111114
vn 0.830997 -0.545067 0.111114
vn 0.830997 -0.545067 0.111114
vn 0.769308 -0.637684 0.039043
vn 0.769308 -0.637684 0.039043
vn 0.769308 -0.637684 0.039043
vn 0.769308 -0.637684 0.039043
vn 0.493995 -0.860652 0.123478
vn 0.493995 -0.860652 0.123478
vn 0.493995 -0.860652 0.123478
vn 0.493995 -0.860652 0.123478
s off
g Rune_Part_02
usemtl initialShadingGroup
f 2/4/1 3/2/2 16/3/3 17/14/4
f 3/2/5 2/4/6 5/6/7 4/5/8
f 4/5/9 5/6/10 7/7/11 6/15/12
f 8/29/13 9/10/14 18/19/15 19/26/16
f 9/10/17 8/29/18 10/28/19 11/11/20
f 11/11/21 10/28/22 12/27/23 13/24/24
f 14/21/25 15/1/26 17/14/27 16/3/28
f 19/26/29 18/19/30 20/23/31 21/25/32
f 17/14/33 5/6/34 2/4/35
f 3/2/36 4/5/37 10/16/38 8/8/39
f 4/5/40 6/15/41 12/17/42 10/16/43
f 9/10/44 11/11/45 1/22/46 18/19/47
f 11/11/48 13/24/49 1/22/50
f 18/19/51 1/22/52 20/23/53
f 21/13/54 14/21/55 16/3/56 19/9/57
f 19/9/58 16/3/59 3/2/60 8/8/61
f 7/7/62 5/6/63 17/14/64 15/1/65
f 7/7/66 13/12/67 12/17/68 6/15/69
f 15/1/70 20/20/71 1/18/72
f 15/1/73 1/18/74 13/12/75 7/7/76
f 14/21/77 21/13/78 20/20/79 15/1/80
