# This file uses centimeters as units for non-parametric coordinates.

mtllib Bush_01.mtl
g default
v -1.840952 0.056373 -0.545334
v -3.957743 1.499656 -1.496328
v -2.540960 1.219776 -3.934036
v -4.801756 2.120315 -1.523151
v -4.299322 2.177333 1.819233
v -1.926123 7.695023 -0.662746
v 0.532244 5.574037 -3.027290
v -3.429617 5.519725 -3.686111
v -5.281136 5.553895 -0.121937
v -2.463633 5.629310 2.739792
v 1.129259 5.641746 0.944149
v 1.514086 2.197528 -1.086163
v -1.303431 2.122121 -3.947803
v -4.968405 3.548831 -1.474087
v -4.984716 3.140823 -1.369991
v -0.337454 2.231634 2.478085
v -3.933447 4.316669 -3.151814
v -4.874826 4.949241 -3.646786
v -3.207045 3.510393 -5.250889
v -5.894741 3.473522 -5.697895
v -7.150833 3.496719 -3.279930
v -5.239429 3.547843 -1.338562
v -2.938673 3.540796 -3.465611
v -4.452330 1.168624 -5.875450
v -6.889763 1.160198 -4.657278
v -6.484720 1.206104 -1.963079
v -2.729986 2.117177 -3.234875
v -4.817053 -0.232815 -3.567099
v 2.105549 0.000000 -0.338406
v 3.364637 1.192421 -1.784279
v 4.952658 0.961188 -0.080009
v 3.588058 1.705201 -2.445200
v 0.824907 1.752309 -2.848719
v 2.218790 6.310951 -0.377621
v 3.499415 4.558621 2.132683
v 4.969537 4.513750 -0.842056
v 2.594992 4.541980 -3.159950
v -0.342768 4.604287 -1.617817
v 0.216219 4.614561 1.653240
v 1.729357 1.768994 2.443947
v 4.667051 1.706694 0.901783
v 3.589191 2.885423 -2.588722
v 3.510792 2.548331 -2.626560
v -0.645239 1.797171 0.126022
v 4.667785 3.519800 -1.368439
v 5.284694 4.042423 -1.994186
v 6.153460 2.853665 -0.291176
v 7.150833 2.823203 -2.309204
v 5.539923 2.842368 -3.881685
v 3.546967 2.884606 -2.835487
v 4.677567 2.878784 -0.506706
v 6.945642 0.918927 -1.126171
v 6.566423 0.911965 -3.345268
v 4.339117 0.949892 -3.670496
v 4.445129 1.702609 -0.396980
v 5.207845 -0.238924 -1.967598
v -0.331045 0.000000 0.512966
v 0.788160 1.192421 2.069640
v -1.234411 0.961188 3.225296
v 1.380377 1.705201 2.438444
v 2.405790 1.752309 -0.158932
v -0.318800 6.310951 0.632179
v -3.055620 4.558621 1.304064
v -0.496469 4.513750 3.416195
v 2.303499 4.541980 1.635392
v 1.474916 4.604287 -1.577404
v -2.953371 1.768994 -0.490241
v -2.124739 1.706694 2.722496
v 1.519827 2.885423 2.472405
v 1.574610 2.548331 2.404751
v -0.153357 1.797171 -2.271087
v 0.085016 3.519800 3.242971
v 0.552904 4.042423 3.986754
v -1.303774 2.853665 4.442549
v 0.432306 2.823203 5.875450
v 2.331835 2.842368 4.667341
v 1.769705 2.884606 2.487798
v -0.756071 2.878784 3.055202
v -0.672327 0.918927 5.404860
v 1.574652 0.911965 5.543767
v 2.401175 0.949892 3.450079
v -0.809664 1.702609 2.803817
v 0.544615 -0.238924 3.905859
vt 0.018739 0.289418
vt 0.006314 0.102522
vt 0.124554 0.188793
vt 0.215926 0.343305
vt 0.473225 0.329551
vt 0.423295 0.196185
vt 0.226629 0.184985
vt 0.150712 0.094256
vt 0.460637 0.987986
vt 0.815332 0.863420
vt 0.419441 0.873095
vt 0.506083 0.902165
vt 0.569074 0.973602
vt 0.808991 0.921242
vt 0.730607 0.882670
vt 0.526059 0.802677
vt 0.168396 0.085510
vt 0.331363 0.257044
vt 0.062449 0.077690
vt 0.590021 0.881202
vt 0.568767 0.982971
vt 0.586185 0.971311
vt 0.743443 0.919118
vt 0.655338 0.812122
vt 0.659698 0.936738
vt 0.618349 0.942653
vt 0.216290 0.062286
vt 0.421728 0.357149
vt 0.551660 0.448937
vt 0.454467 0.503294
vt 0.490378 0.556972
vt 0.556028 0.739009
vt 0.050887 0.026302
vt 0.267590 0.054767
vt 0.802881 0.233912
vt 0.727267 0.168336
vt 0.778165 0.148631
vt 0.772140 0.711707
vt 0.649999 0.608571
vt 0.754043 0.592776
vt 0.850868 0.622534
vt 0.928604 0.695640
vt 0.579965 0.606724
vt 0.309029 0.925388
vt 0.225812 0.892982
vt 0.441411 0.670119
vt 0.329639 0.600323
vt 0.397763 0.555938
vt 0.016523 0.669838
vt 0.274323 0.700497
vt 0.235758 0.577523
vt 0.309256 0.470215
vt 0.040091 0.542899
vt 0.456686 0.492270
vt 0.136516 0.629196
vt 0.406970 0.524534
vt 0.161068 0.492024
vt 0.447561 0.466124
vt 0.367172 0.464708
vt 0.374055 0.505551
vt 0.435814 0.441701
vt 0.267562 0.853735
vt 0.031939 0.977380
vt 0.266848 0.948277
vt 0.217101 0.938709
vt 0.160546 0.888621
vt 0.025256 0.889681
vt 0.040648 0.981488
vt 0.044548 0.968612
vt 0.166296 0.922827
vt 0.098700 0.837835
vt 0.095165 0.934296
vt 0.062791 0.940616
vt 0.908769 0.987324
vt 0.864720 0.919240
vt 0.756395 0.800535
vt 0.738301 0.713089
vt 0.902010 0.884446
vt 0.852784 0.769925
vt 0.590765 0.487552
vt 0.837282 0.163125
vt 0.899848 0.189784
vt 0.717309 0.484154
vt 0.942648 0.541770
vt 0.834235 0.562954
vt 0.840411 0.553652
vt 0.753435 0.239805
vt 0.706945 0.212120
vt 0.778651 0.567059
vt 0.658247 0.133848
vt 0.655130 0.377112
vt 0.769763 0.499580
vt 0.757577 0.538559
vt 0.841024 0.501810
vt 0.867992 0.029422
vt 0.965021 0.014732
vt 0.986329 0.048095
vt 0.847234 0.251758
vt 0.884788 0.109362
vt 0.817509 0.093937
vt 0.740030 0.071869
vt 0.633738 0.386780
vt 0.561221 0.015498
vt 0.638430 0.211766
vt 0.524086 0.166312
vt 0.901010 0.197018
vt 0.912349 0.179113
vt 0.663366 0.179494
vt 0.655454 0.039155
vt 0.946178 0.106896
vt 0.924528 0.137825
vt 0.398583 0.873580
vt 0.397097 0.884182
vt 0.345842 0.943353
vt 0.268295 0.719985
vt 0.284947 0.790791
vt 0.197766 0.805774
vt 0.365615 0.769165
vt 0.332762 0.844816
vt 0.318134 0.121223
vt 0.467571 0.014732
vt 0.385238 0.022254
vt 0.423237 0.061504
vt 0.991581 0.420981
vt 0.921619 0.313848
vt 0.862928 0.423916
vt 0.841932 0.527385
vn 0.090821 0.786415 -0.610986
vn 0.090821 0.786415 -0.610986
vn 0.090821 0.786415 -0.610986
vn -0.547530 0.784204 -0.291950
vn -0.547530 0.784204 -0.291950
vn -0.547530 0.784204 -0.291950
vn -0.441467 0.796236 0.413662
vn -0.441467 0.796235 0.413662
vn -0.441467 0.796235 0.413662
vn 0.262453 0.805887 0.530721
vn 0.262453 0.805887 0.530721
vn 0.262453 0.805887 0.530721
vn 0.591421 0.799816 -0.102543
vn 0.591421 0.799816 -0.102543
vn 0.591421 0.799816 -0.102543
vn 0.702054 -0.190350 -0.686213
vn 0.702054 -0.190350 -0.686212
vn 0.702054 -0.190350 -0.686212
vn -0.975525 -0.182936 0.122008
vn -0.975525 -0.182936 0.122008
vn -0.975525 -0.182936 0.122008
vn -0.975525 -0.182936 0.122008
vn -0.159202 -0.174471 0.971707
vn -0.159202 -0.174471 0.971707
vn -0.159202 -0.174471 0.971707
vn 0.873684 -0.170888 0.455493
vn 0.873684 -0.170888 0.455493
vn 0.873684 -0.170888 0.455493
vn 0.159195 0.174466 -0.971709
vn 0.159195 0.174466 -0.971709
vn 0.159195 0.174466 -0.971709
vn -0.873217 0.168581 -0.457245
vn -0.873217 0.168581 -0.457245
vn -0.873217 0.168581 -0.457245
vn -0.873217 0.168581 -0.457245
vn 0.436899 0.205955 0.875615
vn 0.436899 0.205955 0.875615
vn 0.436899 0.205955 0.875615
vn 0.969183 0.196143 -0.149039
vn 0.969183 0.196143 -0.149039
vn 0.969183 0.196143 -0.149039
vn -0.090825 -0.786423 0.610974
vn -0.090825 -0.786423 0.610974
vn -0.090825 -0.786423 0.610974
vn 0.547533 -0.784208 0.291934
vn 0.547533 -0.784208 0.291934
vn 0.547533 -0.784208 0.291934
vn 0.441463 -0.796231 -0.413675
vn 0.441463 -0.796231 -0.413675
vn 0.441463 -0.796231 -0.413675
vn 0.090826 0.786423 -0.610974
vn 0.090826 0.786423 -0.610974
vn 0.090826 0.786423 -0.610974
vn -0.547528 0.784204 -0.291955
vn -0.547528 0.784204 -0.291955
vn -0.547528 0.784204 -0.291955
vn -0.441464 0.796227 0.413682
vn -0.441464 0.796227 0.413682
vn -0.441464 0.796227 0.413682
vn 0.591455 0.799793 -0.102531
vn 0.591455 0.799793 -0.102531
vn 0.591455 0.799793 -0.102531
vn 0.591390 0.799836 -0.102569
vn 0.591390 0.799836 -0.102569
vn 0.591390 0.799836 -0.102569
vn 0.702075 -0.190332 -0.686195
vn 0.702075 -0.190332 -0.686195
vn 0.702075 -0.190332 -0.686195
vn -0.436899 -0.205961 -0.875614
vn -0.436899 -0.205961 -0.875614
vn -0.436899 -0.205961 -0.875614
vn -0.969180 -0.196151 0.149048
vn -0.969180 -0.196151 0.149048
vn -0.969180 -0.196151 0.149048
vn 0.159215 0.174491 -0.971701
vn 0.159215 0.174491 -0.971701
vn 0.159215 0.174491 -0.971701
vn -0.873679 0.170891 -0.455501
vn -0.873679 0.170891 -0.455501
vn -0.873679 0.170891 -0.455501
vn -0.702059 0.190337 0.686211
vn -0.702059 0.190337 0.686210
vn -0.702059 0.190337 0.686210
vn 0.437062 0.205906 0.875545
vn 0.437062 0.205906 0.875545
vn 0.437062 0.205906 0.875546
vn 0.966995 0.248282 -0.057243
vn 0.966995 0.248282 -0.057243
vn 0.966995 0.248282 -0.057243
vn 0.981486 0.119632 -0.149579
vn 0.981486 0.119632 -0.149579
vn 0.981486 0.119632 -0.149579
vn -0.262461 -0.805877 -0.530732
vn -0.262461 -0.805877 -0.530732
vn -0.262461 -0.805877 -0.530732
vn -0.591453 -0.799792 0.102546
vn -0.591453 -0.799792 0.102546
vn -0.591453 -0.799792 0.102546
vn -0.031582 -0.760104 0.649033
vn -0.031582 -0.760105 0.649033
vn -0.031582 -0.760104 0.649033
vn 0.441468 -0.796238 -0.413657
vn 0.441468 -0.796238 -0.413657
vn 0.441468 -0.796238 -0.413657
vn 0.262464 0.805877 0.530731
vn 0.262464 0.805877 0.530731
vn 0.262464 0.805877 0.530731
vn 0.262453 0.805878 0.530734
vn 0.262453 0.805878 0.530734
vn 0.262453 0.805878 0.530734
vn -0.159208 -0.174507 0.971700
vn -0.159208 -0.174507 0.971700
vn -0.159208 -0.174507 0.971700
vn -0.969187 -0.196127 0.149036
vn -0.969187 -0.196127 0.149036
vn -0.969187 -0.196127 0.149036
vn -0.436883 -0.205961 -0.875622
vn -0.436883 -0.205961 -0.875622
vn -0.436883 -0.205961 -0.875622
vn -0.436843 -0.205943 -0.875646
vn -0.436843 -0.205943 -0.875646
vn -0.436843 -0.205943 -0.875646
vn -0.436874 -0.205948 -0.875629
vn -0.436874 -0.205948 -0.875629
vn -0.436874 -0.205948 -0.875629
vn 0.831905 -0.221254 0.508901
vn 0.831905 -0.221254 0.508901
vn 0.831905 -0.221254 0.508901
vn -0.159049 -0.174565 0.971715
vn -0.159049 -0.174565 0.971715
vn -0.159049 -0.174565 0.971715
vn -0.159274 -0.174392 0.971709
vn -0.159274 -0.174392 0.971710
vn -0.159274 -0.174392 0.971710
vn -0.291236 -0.803415 -0.519332
vn -0.291236 -0.803415 -0.519332
vn -0.291236 -0.803415 -0.519332
vn -0.291236 -0.803415 -0.519332
vn -0.591413 -0.799821 0.102549
vn -0.591413 -0.799821 0.102549
vn -0.591413 -0.799822 0.102549
vn -0.591413 -0.799821 0.102549
vn 0.538250 -0.742827 0.398114
vn 0.538250 -0.742827 0.398114
vn 0.538250 -0.742827 0.398114
vn 0.558394 0.786415 0.264097
vn 0.558394 0.786415 0.264097
vn 0.558394 0.786415 0.264097
vn 0.438182 0.784204 -0.439341
vn 0.438182 0.784204 -0.439341
vn 0.438182 0.784204 -0.439341
vn -0.267866 0.796235 -0.542455
vn -0.267866 0.796235 -0.542455
vn -0.267866 0.796235 -0.542455
vn -0.584025 0.805886 0.097272
vn -0.584025 0.805886 0.097272
vn -0.584025 0.805886 0.097272
vn -0.073369 0.799816 0.595745
vn -0.073369 0.799815 0.595745
vn -0.073369 0.799815 0.595745
vn 0.453138 -0.190351 0.870880
vn 0.453138 -0.190351 0.870880
vn 0.453138 -0.190351 0.870880
vn 0.166126 -0.182936 -0.968987
vn 0.166126 -0.182936 -0.968987
vn 0.166126 -0.182936 -0.968987
vn 0.166126 -0.182936 -0.968987
vn -0.883786 -0.174471 -0.434145
vn -0.883786 -0.174471 -0.434145
vn -0.883786 -0.174471 -0.434145
vn -0.689279 -0.170888 0.704054
vn -0.689279 -0.170888 0.704054
vn -0.689279 -0.170888 0.704054
vn 0.883790 0.174465 0.434139
vn 0.883790 0.174465 0.434139
vn 0.883790 0.174465 0.434139
vn 0.690821 0.168581 -0.703098
vn 0.690821 0.168581 -0.703098
vn 0.690821 0.168581 -0.703098
vn 0.690821 0.168581 -0.703098
vn -0.453123 0.190351 -0.870888
vn -0.453123 0.190351 -0.870888
vn -0.453123 0.190351 -0.870888
vn -0.138417 0.196144 0.970757
vn -0.138417 0.196144 0.970757
vn -0.138417 0.196144 0.970757
vn -0.558383 -0.786423 -0.264098
vn -0.558383 -0.786423 -0.264098
vn -0.558383 -0.786423 -0.264098
vn -0.438169 -0.784207 0.439349
vn -0.438169 -0.784207 0.439348
vn -0.438169 -0.784207 0.439349
vn 0.267880 -0.796230 0.542455
vn 0.267880 -0.796230 0.542455
vn 0.267880 -0.796230 0.542455
vn 0.558382 0.786423 0.264099
vn 0.558382 0.786423 0.264099
vn 0.558382 0.786423 0.264099
vn 0.438186 0.784204 -0.439337
vn 0.438186 0.784204 -0.439337
vn 0.438186 0.784204 -0.439337
vn -0.267887 0.796226 -0.542458
vn -0.267887 0.796226 -0.542458
vn -0.267887 0.796226 -0.542458
vn -0.073391 0.799792 0.595774
vn -0.073391 0.799792 0.595774
vn -0.073391 0.799792 0.595774
vn -0.073334 0.799836 0.595722
vn -0.073334 0.799836 0.595722
vn -0.073334 0.799836 0.595722
vn 0.453116 -0.190332 0.870896
vn 0.453116 -0.190332 0.870896
vn 0.453116 -0.190332 0.870896
vn 0.964684 -0.205961 -0.164208
vn 0.964684 -0.205961 -0.164208
vn 0.964684 -0.205961 -0.164208
vn 0.138408 -0.196153 -0.970756
vn 0.138408 -0.196153 -0.970756
vn 0.138408 -0.196153 -0.970756
vn 0.883777 0.174491 0.434156
vn 0.883776 0.174491 0.434156
vn 0.883776 0.174491 0.434156
vn 0.689285 0.170891 -0.704047
vn 0.689285 0.170891 -0.704047
vn 0.689285 0.170891 -0.704047
vn -0.453135 0.190336 -0.870885
vn -0.453135 0.190336 -0.870885
vn -0.453135 0.190336 -0.870885
vn -0.964666 0.205904 0.164387
vn -0.964666 0.205904 0.164387
vn -0.964666 0.205904 0.164387
vn -0.225636 0.248284 0.942042
vn -0.225636 0.248284 0.942042
vn -0.225636 0.248284 0.942042
vn -0.141470 0.119633 0.982687
vn -0.141470 0.119633 0.982687
vn -0.141470 0.119633 0.982687
vn 0.584037 -0.805877 -0.097277
vn 0.584037 -0.805877 -0.097277
vn 0.584037 -0.805877 -0.097277
vn 0.073375 -0.799791 -0.595777
vn 0.073375 -0.799791 -0.595777
vn 0.073375 -0.799791 -0.595777
vn -0.611985 -0.760105 -0.218437
vn -0.611985 -0.760105 -0.218437
vn -0.611985 -0.760105 -0.218437
vn 0.267862 -0.796237 0.542454
vn 0.267862 -0.796238 0.542454
vn 0.267862 -0.796238 0.542454
vn -0.584037 0.805877 0.097278
vn -0.584037 0.805877 0.097278
vn -0.584037 0.805877 0.097278
vn -0.584035 0.805880 0.097270
vn -0.584035 0.805880 0.097270
vn -0.584035 0.805880 0.097270
vn -0.883777 -0.174507 -0.434149
vn -0.883777 -0.174507 -0.434149
vn -0.883777 -0.174507 -0.434149
vn 0.138422 -0.196128 -0.970759
vn 0.138422 -0.196128 -0.970759
vn 0.138422 -0.196128 -0.970759
vn 0.964687 -0.205961 -0.164190
vn 0.964687 -0.205961 -0.164190
vn 0.964687 -0.205961 -0.164190
vn 0.964699 -0.205942 -0.164146
vn 0.964699 -0.205942 -0.164146
vn 0.964699 -0.205942 -0.164146
vn 0.964692 -0.205947 -0.164179
vn 0.964692 -0.205947 -0.164179
vn 0.964692 -0.205947 -0.164179
vn -0.728278 -0.221251 0.648583
vn -0.728278 -0.221251 0.648583
vn -0.728278 -0.221251 0.648583
vn -0.883837 -0.174567 -0.434003
vn -0.883837 -0.174567 -0.434003
vn -0.883837 -0.174567 -0.434003
vn -0.883767 -0.174392 -0.434215
vn -0.883767 -0.174392 -0.434215
vn -0.883767 -0.174392 -0.434215
vn 0.581471 -0.803416 -0.128121
vn 0.581471 -0.803416 -0.128121
vn 0.581471 -0.803416 -0.128121
vn 0.581471 -0.803416 -0.128121
vn 0.073361 -0.799822 -0.595738
vn 0.073361 -0.799822 -0.595738
vn 0.073361 -0.799822 -0.595738
vn 0.073361 -0.799822 -0.595738
vn -0.537093 -0.742828 0.399672
vn -0.537093 -0.742828 0.399672
vn -0.537093 -0.742828 0.399672
vn -0.384925 0.786415 0.483099
vn -0.384925 0.786415 0.483099
vn -0.384925 0.786415 0.483099
vn 0.327351 0.784205 0.527129
vn 0.327351 0.784204 0.527129
vn 0.327351 0.784204 0.527129
vn 0.589373 0.796235 -0.136559
vn 0.589373 0.796235 -0.136559
vn 0.589373 0.796235 -0.136559
vn -0.951493 -0.190349 0.241719
vn -0.951493 -0.190349 0.241719
vn -0.951493 -0.190349 0.241719
vn 0.905217 -0.182935 0.383560
vn 0.905217 -0.182935 0.383560
vn 0.905217 -0.182935 0.383560
vn 0.905217 -0.182935 0.383560
vn -0.624948 0.174465 0.760922
vn -0.624948 0.174465 0.760921
vn -0.624948 0.174465 0.760921
vn 0.526263 0.168582 0.833443
vn 0.526263 0.168582 0.833443
vn 0.526263 0.168582 0.833443
vn 0.526263 0.168582 0.833443
vn 0.951497 0.190352 -0.241700
vn 0.951497 0.190352 -0.241700
vn 0.951497 0.190352 -0.241700
vn 0.384923 -0.786423 -0.483087
vn 0.384923 -0.786423 -0.483087
vn 0.384923 -0.786423 -0.483087
vn -0.327362 -0.784208 -0.527117
vn -0.327362 -0.784208 -0.527117
vn -0.327362 -0.784208 -0.527117
vn -0.589376 -0.796231 0.136572
vn -0.589376 -0.796231 0.136572
vn -0.589376 -0.796231 0.136572
vn -0.384923 0.786424 0.483085
vn -0.384923 0.786424 0.483085
vn -0.384923 0.786424 0.483085
vn 0.327347 0.784203 0.527133
vn 0.327347 0.784203 0.527133
vn 0.327347 0.784203 0.527133
vn 0.589381 0.796227 -0.136578
vn 0.589381 0.796226 -0.136578
vn 0.589381 0.796226 -0.136578
vn -0.563146 0.799793 -0.207841
vn -0.563146 0.799793 -0.207841
vn -0.563146 0.799793 -0.207841
vn -0.563110 0.799836 -0.207775
vn -0.563110 0.799836 -0.207775
vn -0.563110 0.799836 -0.207775
vn -0.951504 -0.190331 0.241691
vn -0.951504 -0.190331 0.241691
vn -0.951504 -0.190331 0.241691
vn -0.061015 -0.205961 0.976656
vn -0.061015 -0.205961 0.976656
vn -0.061015 -0.205961 0.976656
vn 0.913284 -0.196153 0.356983
vn 0.913284 -0.196153 0.356983
vn 0.913284 -0.196153 0.356983
vn -0.624962 0.174492 0.760904
vn -0.624963 0.174492 0.760904
vn -0.624962 0.174492 0.760904
vn 0.527537 0.170892 0.832166
vn 0.527537 0.170892 0.832166
vn 0.527537 0.170892 0.832166
vn 0.951497 0.190336 -0.241714
vn 0.951497 0.190336 -0.241714
vn 0.951497 0.190336 -0.241714
vn 0.060837 0.205910 -0.976678
vn 0.060837 0.205910 -0.976678
vn 0.060837 0.205910 -0.976678
vn -0.865362 0.248284 -0.435319
vn -0.865362 0.248284 -0.435319
vn -0.865362 0.248284 -0.435319
vn -0.924198 0.119628 -0.362693
vn -0.924198 0.119628 -0.362693
vn -0.924198 0.119628 -0.362693
vn -0.039020 -0.805878 0.590795
vn -0.039020 -0.805878 0.590795
vn -0.039020 -0.805878 0.590795
vn 0.563154 -0.799791 0.207827
vn 0.563154 -0.799791 0.207827
vn 0.563154 -0.799791 0.207827
vn 0.352747 -0.760105 -0.545720
vn 0.352747 -0.760105 -0.545720
vn 0.352747 -0.760105 -0.545720
vn -0.589371 -0.796238 0.136553
vn -0.589371 -0.796238 0.136553
vn -0.589371 -0.796238 0.136553
vn 0.039017 0.805877 -0.590797
vn 0.039017 0.805877 -0.590797
vn 0.039017 0.805877 -0.590797
vn 0.039025 0.805878 -0.590795
vn 0.039025 0.805878 -0.590795
vn 0.039025 0.805878 -0.590795
vn 0.624955 -0.174506 -0.760907
vn 0.624955 -0.174506 -0.760907
vn 0.624955 -0.174506 -0.760907
vn 0.913284 -0.196129 0.356997
vn 0.913284 -0.196129 0.356996
vn 0.913284 -0.196129 0.356997
vn -0.061034 -0.205960 0.976655
vn -0.061034 -0.205961 0.976655
vn -0.061034 -0.205960 0.976655
vn -0.061079 -0.205943 0.976656
vn -0.061079 -0.205943 0.976656
vn -0.061079 -0.205943 0.976656
vn -0.061045 -0.205948 0.976657
vn -0.061045 -0.205948 0.976657
vn -0.061045 -0.205948 0.976657
vn -0.464620 -0.221250 -0.857424
vn -0.464620 -0.221250 -0.857424
vn -0.464620 -0.221250 -0.857424
vn 0.624826 -0.174567 -0.760998
vn 0.624826 -0.174567 -0.760998
vn 0.624826 -0.174567 -0.760998
vn 0.625016 -0.174392 -0.760882
vn 0.625016 -0.174392 -0.760882
vn 0.625016 -0.174392 -0.760882
vn -0.008408 -0.803416 0.595359
vn -0.008408 -0.803416 0.595359
vn -0.008408 -0.803416 0.595359
vn -0.008408 -0.803416 0.595359
vn 0.563119 -0.799821 0.207805
vn 0.563119 -0.799821 0.207805
vn 0.563119 -0.799821 0.207805
vn 0.563119 -0.799821 0.207805
vn -0.266092 -0.742827 -0.614331
vn -0.266092 -0.742827 -0.614331
vn -0.266092 -0.742827 -0.614331
vn -0.702066 0.190350 0.686200
vn -0.702066 0.190350 0.686200
vn -0.702066 0.190350 0.686200
s off
g Bush_01
usemtl Terra_PlanetFBXASC032SG1
f 6/104/1 7/105/2 8/103/3
f 6/1/4 8/2/5 9/3/6
f 6/1/7 9/3/8 10/4/9
f 6/104/10 10/102/11 11/5/12
f 6/104/13 11/5/14 7/105/15
f 7/105/16 12/6/17 13/123/18
f 5/7/19 9/3/20 14/8/21 15/17/22
f 10/4/23 5/7/24 16/18/25
f 11/5/26 16/18/27 12/6/28
f 13/123/29 8/103/30 7/105/31
f 9/3/32 8/2/33 17/19/34 14/8/35
f 16/18/36 11/5/37 10/4/38
f 12/6/39 7/105/40 11/5/41
f 1/120/42 16/18/43 5/7/44
f 1/120/45 12/6/46 16/18/47
f 1/120/48 13/123/49 12/6/50
f 18/78/51 19/10/52 20/79/53
f 18/9/54 20/11/55 21/12/56
f 18/9/57 21/12/58 22/13/59
f 17/75/60 23/14/61 19/10/62
f 17/75/63 19/10/64 18/78/65
f 19/10/66 3/15/67 24/76/68
f 20/79/69 24/76/70 25/77/71
f 21/12/72 25/16/73 26/20/74
f 24/76/75 20/79/76 19/10/77
f 25/16/78 21/12/79 20/11/80
f 26/20/81 22/13/82 21/12/83
f 14/21/84 22/13/85 15/22/86
f 19/10/87 27/23/88 3/15/89
f 27/23/90 19/10/91 23/14/92
f 28/24/93 25/77/94 24/76/95
f 28/24/96 26/20/97 25/16/98
f 28/24/99 2/25/100 26/20/101
f 28/24/102 24/76/103 3/15/104
f 18/78/105 14/74/106 17/75/107
f 14/21/108 18/9/109 22/13/110
f 4/26/111 26/20/112 2/25/113
f 15/17/114 4/27/115 5/7/116
f 27/122/117 23/121/118 13/123/119
f 23/33/120 17/19/121 8/2/122
f 23/121/123 8/103/124 13/123/125
f 27/23/126 2/25/127 3/15/128
f 26/20/129 15/22/130 22/13/131
f 15/22/132 26/20/133 4/26/134
f 2/34/135 27/122/136 13/123/137 1/120/138
f 1/120/139 5/7/140 4/27/141 2/34/142
f 3/15/143 2/25/144 28/24/145
f 34/46/146 35/47/147 36/48/148
f 34/46/149 36/48/150 37/31/151
f 34/46/152 37/31/153 38/43/154
f 34/46/155 38/43/156 39/32/157
f 34/46/158 39/50/159 35/47/160
f 35/47/161 40/51/162 41/52/163
f 33/29/164 37/31/165 42/30/166 43/54/167
f 38/49/168 33/53/169 44/55/170
f 39/50/171 44/55/172 40/51/173
f 41/52/174 36/48/175 35/47/176
f 37/31/177 36/48/178 45/56/179 42/30/180
f 33/29/181 38/43/182 37/31/183
f 40/51/184 35/47/185 39/50/186
f 29/57/187 44/55/188 33/53/189
f 29/57/190 40/51/191 44/55/192
f 29/57/193 41/52/194 40/51/195
f 46/44/196 47/45/197 48/62/198
f 46/44/199 48/62/200 49/119/201
f 46/44/202 49/119/203 50/112/204
f 45/64/205 51/65/206 47/45/207
f 45/64/208 47/45/209 46/44/210
f 47/45/211 31/66/212 52/117/213
f 48/62/214 52/117/215 53/116/216
f 49/119/217 53/116/218 54/118/219
f 52/117/220 48/62/221 47/45/222
f 53/116/223 49/119/224 48/62/225
f 54/118/226 50/112/227 49/119/228
f 42/68/229 50/63/230 43/69/231
f 47/45/232 55/70/233 31/66/234
f 55/70/235 47/45/236 51/65/237
f 56/115/238 53/116/239 52/117/240
f 56/115/241 54/118/242 53/116/243
f 56/71/244 30/72/245 54/67/246
f 56/71/247 52/117/248 31/66/249
f 46/44/250 42/113/251 45/114/252
f 42/113/253 46/44/254 50/112/255
f 32/73/256 54/67/257 30/72/258
f 43/54/259 32/58/260 33/29/261
f 55/59/262 51/60/263 41/52/264
f 51/60/265 45/56/266 36/48/267
f 51/60/268 36/48/269 41/52/270
f 55/70/271 30/72/272 31/66/273
f 54/67/274 43/69/275 50/63/276
f 43/69/277 54/67/278 32/73/279
f 30/61/280 55/59/281 41/52/282 29/28/283
f 29/28/284 33/29/285 32/58/286 30/61/287
f 31/66/288 30/72/289 56/71/290
f 62/38/291 63/39/292 64/40/293
f 62/38/294 64/40/295 65/41/296
f 62/38/297 65/41/298 66/42/299
f 63/39/300 67/80/301 68/83/302
f 61/84/303 65/41/304 69/85/305 70/86/306
f 68/83/307 64/40/308 63/39/309
f 65/41/310 64/40/311 72/89/312 69/85/313
f 61/84/314 66/42/315 65/41/316
f 57/126/317 71/124/318 61/84/319
f 57/126/320 67/125/321 71/124/322
f 57/91/323 68/83/324 67/80/325
f 73/35/326 74/36/327 75/37/328
f 73/35/329 75/37/330 76/81/331
f 73/35/332 76/81/333 77/82/334
f 72/87/335 78/88/336 74/36/337
f 72/87/338 74/36/339 73/35/340
f 74/36/341 59/90/342 79/101/343
f 75/37/344 79/101/345 80/100/346
f 76/81/347 80/100/348 81/99/349
f 79/101/350 75/37/351 74/36/352
f 80/100/353 76/81/354 75/37/355
f 81/99/356 77/82/357 76/81/358
f 69/106/359 77/82/360 70/107/361
f 74/36/362 82/108/363 59/90/364
f 82/108/365 74/36/366 78/88/367
f 83/95/368 80/100/369 79/101/370
f 83/95/371 81/99/372 80/100/373
f 83/95/374 58/110/375 81/99/376
f 83/109/377 79/101/378 59/90/379
f 73/35/380 69/106/381 72/98/382
f 69/106/383 73/35/384 77/82/385
f 60/111/386 81/99/387 58/110/388
f 70/86/389 60/127/390 61/84/391
f 82/92/392 78/93/393 68/83/394
f 78/93/395 72/89/396 64/40/397
f 78/93/398 64/40/399 68/83/400
f 82/97/401 58/110/402 59/96/403
f 81/99/404 70/107/405 77/82/406
f 70/107/407 81/99/408 60/111/409
f 58/94/410 82/92/411 68/83/412 57/126/413
f 57/126/414 61/84/415 60/127/416 58/94/417
f 59/96/418 58/110/419 83/95/420
f 10/4/421 9/3/422 5/7/423
