# This file uses centimeters as units for non-parametric coordinates.

mtllib Island_Tree.mtl
g default
v 0.916798 -0.017873 -1.301809
v 0.076077 -0.030527 -1.512983
v -0.038982 1.935442 -1.073862
v 0.496262 1.943491 -0.939420
v -0.914844 -0.033185 -0.967794
v -0.669765 1.933764 -0.726823
v -1.475456 -0.024328 0.014536
v -1.026680 1.939421 -0.101484
v -1.277382 -0.009164 0.858336
v -0.900566 1.949057 0.435759
v -0.436657 0.003447 1.069556
v -0.365364 1.957121 0.570178
v 0.554249 0.006117 0.524371
v 0.265469 1.958811 0.223155
v 1.114888 -0.002710 -0.457933
v 0.622383 1.953131 -0.402162
v 0.503758 3.910365 -0.530569
v 1.039009 3.918425 -0.396108
v -0.127037 3.908652 -0.183481
v -0.483951 3.914309 0.441821
v -0.357872 3.923991 0.979025
v 0.177372 3.932013 1.113486
v 0.808209 3.933714 0.766398
v 1.165070 3.928031 0.141142
v 0.461151 7.730673 -0.589296
v 0.455117 8.275778 -0.597688
v 0.990307 8.283808 -0.463224
v -0.169677 7.728945 -0.242189
v -0.406509 8.289419 0.911879
v -0.532638 8.279726 0.374693
v 0.791809 8.371363 0.731852
v 1.011757 8.150286 0.262400
v -0.175728 8.274054 -0.250581
v 0.181900 8.256826 -1.632871
v -0.448944 8.255167 -1.285760
v 0.187973 7.711688 -1.624387
v -0.442844 7.710059 -1.277360
v -0.036239 8.317595 -2.005807
v -0.436313 8.346388 -1.785234
v -0.596294 8.327833 -1.535230
v -0.131332 7.789114 -2.100229
v -0.757934 7.839007 -1.748952
v -0.069572 8.465933 -2.152013
v 0.648056 8.707159 -0.403387
v 1.099282 8.527384 -0.353513
v -0.172397 9.085020 0.737402
v 0.065564 8.813555 -0.007638
v -0.058246 9.067972 1.262568
v 0.341301 8.772238 1.260241
v 0.856495 8.297560 0.529383
v 0.198300 8.695528 -0.163305
v 1.528092 15.383261 0.463492
v 3.986458 13.262276 -1.901052
v 0.024598 13.207964 -2.559873
v -1.826921 13.242134 1.004302
v 0.990582 13.317549 3.866030
v 4.583474 13.329985 2.070387
v 4.968300 9.885767 0.040076
v 2.150784 9.810360 -2.821565
v -1.514190 11.237070 -0.347848
v -1.530502 10.829062 -0.243753
v -0.845108 9.865572 2.945471
v 3.116761 9.919872 3.604323
v -0.479232 12.004908 -2.025575
v 1.613263 7.744612 0.580904
v -1.420612 12.637480 -2.520547
v 0.247170 11.198631 -4.124650
v -2.440527 11.161760 -4.571657
v -3.696619 11.184958 -2.153692
v -1.785215 11.236082 -0.212324
v 0.515541 11.229034 -2.339372
v 0.913254 8.908014 -2.807798
v -0.998115 8.856863 -4.749212
v -3.435548 8.848437 -3.531040
v -3.030506 8.894342 -0.836841
v 0.724228 9.805416 -2.108636
v -0.503528 9.187895 -0.370090
v -1.347541 9.808554 -0.396913
v -0.836799 8.027720 -1.890241
v -0.327911 8.159105 -2.491682
v -1.362838 7.455424 -2.440860
vt 0.210802 0.271821
vt 0.226927 0.347025
vt 0.194691 0.347511
vt 0.190280 0.272130
vt 0.156697 0.347612
vt 0.166094 0.272194
vt 0.048927 0.014360
vt 0.089876 0.012458
vt 0.082042 0.084829
vt 0.056112 0.086359
vt 0.120990 0.016274
vt 0.101703 0.087520
vt 0.357170 0.013481
vt 0.388656 0.013616
vt 0.388366 0.088207
vt 0.368356 0.086485
vt 0.428673 0.019487
vt 0.414983 0.089508
vt 0.298550 0.013065
vt 0.296411 0.088057
vt 0.272435 0.088275
vt 0.260885 0.013403
vt 0.317011 0.087687
vt 0.330906 0.012483
vt 0.211090 0.196406
vt 0.231613 0.196097
vt 0.186903 0.196471
vt 0.069629 0.161068
vt 0.095780 0.160590
vt 0.115710 0.162219
vt 0.379513 0.162167
vt 0.399242 0.164557
vt 0.425304 0.165511
vt 0.275580 0.163780
vt 0.251605 0.163998
vt 0.296179 0.163412
vt 0.209456 0.049924
vt 0.209225 0.029024
vt 0.229746 0.028716
vt 0.185268 0.049991
vt 0.065816 0.298775
vt 0.091295 0.318039
vt 0.111001 0.319861
vt 0.368611 0.321266
vt 0.412610 0.327311
vt 0.298753 0.330793
vt 0.270930 0.325673
vt 0.511258 0.018271
vt 0.548922 0.039767
vt 0.478901 0.025866
vt 0.886592 0.036901
vt 0.924644 0.023588
vt 0.927727 0.049785
vt 0.889899 0.062132
vt 0.934533 0.070169
vt 0.898316 0.078807
vt 0.945445 0.095799
vt 0.907624 0.102371
vt 0.948096 0.116205
vt 0.908540 0.122126
vt 0.871428 0.049431
vt 0.873771 0.066978
vt 0.875369 0.038778
vt 0.880675 0.085341
vt 0.887899 0.108768
vt 0.897332 0.125914
vt 0.861692 0.088341
vt 0.865787 0.068380
vt 0.880184 0.113335
vt 0.216623 0.012483
vt 0.233924 0.019376
vt 0.071744 0.342380
vt 0.066104 0.319258
vt 0.101549 0.349889
vt 0.120874 0.352284
vt 0.374683 0.354326
vt 0.391502 0.347583
vt 0.569826 0.077761
vt 0.561727 0.109997
vt 0.529373 0.117592
vt 0.491708 0.096096
vt 0.470804 0.058101
vt 0.252930 0.334150
vt 0.260693 0.331320
vt 0.943802 0.032089
vt 0.948103 0.024605
vt 0.946312 0.050573
vt 0.294546 0.340132
vt 0.803959 0.172575
vt 0.709032 0.245575
vt 0.620472 0.124241
vt 0.329173 0.645423
vt 0.213833 0.539888
vt 0.359290 0.493869
vt 0.487358 0.602344
vt 0.937295 0.264591
vt 0.803156 0.360772
vt 0.671132 0.360014
vt 0.582647 0.257782
vt 0.493760 0.464725
vt 0.388528 0.400023
vt 0.402697 0.392641
vt 0.654625 0.497173
vt 0.266047 0.362733
vt 0.319854 0.356888
vt 0.817362 0.529286
vt 0.555513 0.379558
vt 0.994238 0.780606
vt 0.869922 0.835614
vt 0.890351 0.689791
vt 0.370666 0.925357
vt 0.342545 0.769161
vt 0.445682 0.824269
vt 0.509106 0.925988
vt 0.863059 0.955045
vt 0.815447 0.912921
vt 0.923319 0.960294
vt 0.743605 0.841713
vt 0.783426 0.742017
vt 0.750331 0.626241
vt 0.492352 0.702868
vt 0.556141 0.815379
vt 0.506474 0.937417
vt 0.531437 0.926857
vt 0.745117 0.889410
vt 0.652765 0.744929
vt 0.633311 0.897764
vt 0.411329 0.977775
vt 0.578926 0.897603
vt 0.434346 0.365321
vt 0.472431 0.351606
vt 0.506154 0.348344
vt 0.501629 0.356130
vt 0.537815 0.251073
vt 0.572272 0.193507
vt 0.563446 0.147877
vt 0.535698 0.338934
vt 0.516035 0.331454
vt 0.473183 0.266258
vt 0.533807 0.325398
vt 0.497837 0.386776
vt 0.506559 0.404537
vt 0.519953 0.402801
vt 0.693534 0.823634
vt 0.670582 0.822157
vt 0.658080 0.797463
vt 0.658292 0.825643
vt 0.693275 0.795396
vt 0.530429 0.383464
vt 0.530740 0.375836
vt 0.535075 0.365952
vn 0.234185 0.224961 -0.945807
vn 0.234185 0.224961 -0.945807
vn 0.234185 0.224961 -0.945807
vn 0.234185 0.224961 -0.945807
vn -0.475761 0.165124 -0.863936
vn -0.475761 0.165124 -0.863936
vn -0.475761 0.165124 -0.863936
vn -0.475761 0.165124 -0.863936
vn -0.855719 0.166628 -0.489878
vn -0.855719 0.166628 -0.489878
vn -0.855719 0.166628 -0.489878
vn -0.855719 0.166628 -0.489878
vn -0.948426 0.229655 0.218511
vn -0.948426 0.229655 0.218511
vn -0.948426 0.229655 0.218511
vn -0.948426 0.229655 0.218511
vn -0.239495 0.248626 0.938524
vn -0.239495 0.248626 0.938524
vn -0.239495 0.248626 0.938524
vn -0.239495 0.248626 0.938524
vn 0.471654 0.202164 0.858296
vn 0.471654 0.202164 0.858296
vn 0.471654 0.202164 0.858296
vn 0.471654 0.202164 0.858296
vn 0.851614 0.200640 0.484250
vn 0.851614 0.200640 0.484250
vn 0.851614 0.200640 0.484250
vn 0.851614 0.200640 0.484250
vn 0.943144 0.243935 -0.225777
vn 0.943144 0.243935 -0.225777
vn 0.943144 0.243935 -0.225777
vn 0.943144 0.243935 -0.225777
vn 0.236067 0.196902 -0.951579
vn 0.236067 0.196902 -0.951579
vn 0.236067 0.196902 -0.951579
vn 0.236067 0.196902 -0.951579
vn -0.452291 0.349980 -0.820333
vn -0.452291 0.349980 -0.820333
vn -0.452291 0.349980 -0.820333
vn -0.452291 0.349980 -0.820333
vn -0.811725 0.351414 -0.466488
vn -0.811725 0.351413 -0.466488
vn -0.811725 0.351414 -0.466488
vn -0.811725 0.351413 -0.466488
vn -0.954347 0.201631 0.220378
vn -0.954347 0.201631 0.220378
vn -0.954347 0.201631 0.220378
vn -0.954347 0.201631 0.220378
vn -0.236061 -0.196903 0.951580
vn -0.236061 -0.196903 0.951580
vn -0.236061 -0.196903 0.951580
vn -0.236061 -0.196903 0.951580
vn 0.452261 -0.349963 0.820357
vn 0.452261 -0.349963 0.820357
vn 0.452261 -0.349963 0.820357
vn 0.452261 -0.349963 0.820357
vn 0.811729 -0.351396 0.466494
vn 0.811729 -0.351396 0.466494
vn 0.811729 -0.351396 0.466495
vn 0.811729 -0.351396 0.466495
vn 0.954349 -0.201634 -0.220369
vn 0.954349 -0.201634 -0.220369
vn 0.954349 -0.201634 -0.220369
vn 0.954349 -0.201634 -0.220369
vn 0.243826 -0.012228 -0.969742
vn 0.243826 -0.012228 -0.969742
vn 0.243826 -0.012228 -0.969742
vn -0.481954 -0.018841 -0.875994
vn -0.481954 -0.018841 -0.875994
vn -0.481954 -0.018841 -0.875994
vn -0.481954 -0.018841 -0.875994
vn -0.868424 -0.017306 -0.495521
vn -0.868424 -0.017306 -0.495521
vn -0.868424 -0.017306 -0.495521
vn -0.868424 -0.017306 -0.495521
vn -0.973480 -0.007335 0.228653
vn -0.973480 -0.007335 0.228653
vn -0.973480 -0.007335 0.228653
vn -0.973480 -0.007335 0.228653
vn 0.023685 0.049371 0.998500
vn 0.023685 0.049371 0.998500
vn 0.023685 0.049371 0.998500
vn 0.023685 0.049371 0.998500
vn 0.482019 0.008602 0.876119
vn 0.482019 0.008602 0.876119
vn 0.482019 0.008602 0.876119
vn 0.993229 0.024082 -0.113652
vn 0.993229 0.024082 -0.113652
vn 0.993229 0.024082 -0.113652
vn 0.993229 0.024082 -0.113652
vn 0.011150 -0.999820 0.015348
vn 0.011150 -0.999820 0.015348
vn 0.011150 -0.999820 0.015348
vn -0.011121 0.999821 -0.015338
vn -0.011121 0.999821 -0.015338
vn -0.011121 0.999821 -0.015338
vn -0.011121 0.999821 -0.015338
vn 0.966839 0.006784 -0.255296
vn 0.966839 0.006784 -0.255296
vn 0.966839 0.006784 -0.255296
vn 0.966839 0.006784 -0.255296
vn 0.011110 -0.999820 0.015358
vn 0.011110 -0.999820 0.015358
vn 0.011110 -0.999820 0.015358
vn 0.011110 -0.999820 0.015358
vn -0.966842 -0.006848 0.255283
vn -0.966842 -0.006848 0.255283
vn -0.966842 -0.006848 0.255283
vn -0.966842 -0.006848 0.255283
vn 0.106433 0.983502 0.146274
vn 0.106433 0.983502 0.146274
vn 0.106433 0.983502 0.146274
vn 0.106433 0.983502 0.146274
vn 0.170829 0.968497 0.181193
vn 0.170829 0.968497 0.181193
vn 0.170829 0.968497 0.181193
vn 0.842589 -0.026810 -0.537890
vn 0.842589 -0.026810 -0.537890
vn 0.842589 -0.026810 -0.537890
vn 0.842589 -0.026810 -0.537890
vn -0.114281 -0.983847 -0.137785
vn -0.114282 -0.983847 -0.137785
vn -0.114281 -0.983847 -0.137785
vn -0.114282 -0.983847 -0.137785
vn -0.839280 0.018345 0.543389
vn -0.839280 0.018345 0.543389
vn -0.839280 0.018345 0.543389
vn -0.839280 0.018345 0.543389
vn 0.867839 -0.116152 -0.483078
vn 0.867839 -0.116152 -0.483078
vn 0.867839 -0.116152 -0.483078
vn 0.867839 -0.116152 -0.483078
vn -0.844721 0.046201 0.533210
vn -0.844721 0.046201 0.533210
vn -0.844720 0.046201 0.533210
vn 0.226926 0.313768 -0.921984
vn 0.226926 0.313768 -0.921984
vn 0.226926 0.313768 -0.921984
vn 0.226926 0.313768 -0.921984
vn -0.738561 0.522333 -0.426258
vn -0.738561 0.522333 -0.426258
vn -0.738561 0.522333 -0.426258
vn -0.738561 0.522333 -0.426258
vn -0.924169 0.318268 0.211229
vn -0.924168 0.318269 0.211229
vn -0.924169 0.318268 0.211229
vn -0.924168 0.318269 0.211229
vn 0.011686 -0.596913 0.802221
vn 0.011686 -0.596913 0.802221
vn 0.011686 -0.596913 0.802221
vn 0.011686 -0.596913 0.802221
vn 0.011141 -0.999820 0.015353
vn 0.011141 -0.999820 0.015353
vn 0.011141 -0.999820 0.015353
vn 0.011114 -0.999820 0.015359
vn 0.011114 -0.999820 0.015359
vn 0.011114 -0.999820 0.015359
vn 0.011172 -0.999819 0.015431
vn 0.011172 -0.999819 0.015431
vn 0.011172 -0.999819 0.015431
vn 0.011150 -0.999820 0.015357
vn 0.011150 -0.999820 0.015357
vn 0.011150 -0.999820 0.015357
vn 0.011150 -0.999820 0.015357
vn -0.868414 -0.017269 -0.495538
vn -0.868414 -0.017269 -0.495538
vn -0.868414 -0.017269 -0.495538
vn 0.885715 0.012712 0.464055
vn 0.885715 0.012712 0.464055
vn 0.885715 0.012712 0.464055
vn 0.885715 0.012712 0.464055
vn 0.577535 0.808875 -0.110338
vn 0.577535 0.808875 -0.110338
vn 0.577535 0.808875 -0.110338
vn -0.412601 0.520893 -0.747283
vn -0.412601 0.520893 -0.747283
vn -0.412601 0.520893 -0.747283
vn -0.412808 0.521043 -0.747063
vn -0.412808 0.521043 -0.747063
vn -0.412808 0.521043 -0.747063
vn -0.412381 0.521044 -0.747299
vn -0.412381 0.521044 -0.747298
vn -0.412381 0.521044 -0.747298
vn 0.386934 0.689953 0.611757
vn 0.386934 0.689953 0.611757
vn 0.386934 0.689953 0.611757
vn -0.409860 -0.727158 -0.550687
vn -0.409859 -0.727158 -0.550687
vn -0.409860 -0.727158 -0.550687
vn -0.409860 -0.727158 -0.550687
vn 0.923963 -0.370377 -0.095466
vn 0.923963 -0.370377 -0.095466
vn 0.923963 -0.370377 -0.095466
vn 0.090821 0.786414 -0.610986
vn 0.090821 0.786414 -0.610986
vn 0.090821 0.786414 -0.610986
vn -0.547530 0.784204 -0.291949
vn -0.547530 0.784204 -0.291949
vn -0.547530 0.784204 -0.291949
vn -0.441467 0.796236 0.413661
vn -0.441467 0.796236 0.413661
vn -0.441467 0.796236 0.413661
vn 0.262453 0.805886 0.530722
vn 0.262453 0.805886 0.530722
vn 0.262453 0.805886 0.530722
vn 0.591421 0.799817 -0.102543
vn 0.591421 0.799817 -0.102543
vn 0.591421 0.799817 -0.102543
vn 0.702054 -0.190351 -0.686212
vn 0.702053 -0.190351 -0.686212
vn 0.702054 -0.190351 -0.686212
vn -0.975525 -0.182935 0.122008
vn -0.975525 -0.182935 0.122008
vn -0.975525 -0.182935 0.122008
vn -0.975525 -0.182935 0.122008
vn -0.159202 -0.174470 0.971707
vn -0.159202 -0.174470 0.971707
vn -0.159202 -0.174470 0.971707
vn 0.873684 -0.170888 0.455493
vn 0.873684 -0.170888 0.455493
vn 0.873684 -0.170888 0.455493
vn 0.159194 0.174466 -0.971709
vn 0.159194 0.174466 -0.971709
vn 0.159194 0.174466 -0.971709
vn -0.873216 0.168581 -0.457246
vn -0.873216 0.168581 -0.457246
vn -0.873216 0.168581 -0.457246
vn -0.873216 0.168581 -0.457246
vn -0.702066 0.190350 0.686200
vn -0.702066 0.190350 0.686200
vn -0.702066 0.190350 0.686200
vn 0.436899 0.205957 0.875615
vn 0.436899 0.205957 0.875615
vn 0.436899 0.205957 0.875615
vn 0.969183 0.196143 -0.149039
vn 0.969183 0.196143 -0.149039
vn 0.969183 0.196143 -0.149039
vn -0.090825 -0.786423 0.610974
vn -0.090825 -0.786423 0.610974
vn -0.090825 -0.786423 0.610974
vn 0.547534 -0.784207 0.291934
vn 0.547534 -0.784207 0.291934
vn 0.547534 -0.784207 0.291934
vn 0.441464 -0.796230 -0.413675
vn 0.441464 -0.796230 -0.413675
vn 0.441464 -0.796230 -0.413675
vn 0.090826 0.786422 -0.610975
vn 0.090826 0.786422 -0.610975
vn 0.090826 0.786422 -0.610975
vn -0.547528 0.784204 -0.291955
vn -0.547528 0.784203 -0.291955
vn -0.547528 0.784203 -0.291955
vn -0.441463 0.796227 0.413682
vn -0.441463 0.796227 0.413682
vn -0.441463 0.796227 0.413682
vn 0.591454 0.799794 -0.102530
vn 0.591454 0.799793 -0.102530
vn 0.591454 0.799794 -0.102530
vn 0.591389 0.799836 -0.102570
vn 0.591389 0.799837 -0.102570
vn 0.591389 0.799836 -0.102570
vn 0.702075 -0.190332 -0.686196
vn 0.702075 -0.190332 -0.686196
vn 0.702075 -0.190332 -0.686196
vn -0.436900 -0.205961 -0.875613
vn -0.436900 -0.205961 -0.875613
vn -0.436900 -0.205961 -0.875613
vn -0.969179 -0.196154 0.149048
vn -0.969179 -0.196154 0.149048
vn -0.969179 -0.196154 0.149048
vn 0.159216 0.174491 -0.971701
vn 0.159216 0.174491 -0.971701
vn 0.159216 0.174491 -0.971701
vn -0.873678 0.170892 -0.455502
vn -0.873678 0.170892 -0.455502
vn -0.873678 0.170892 -0.455502
vn -0.702059 0.190337 0.686210
vn -0.702059 0.190337 0.686210
vn -0.702059 0.190337 0.686210
vn 0.437065 0.205906 0.875544
vn 0.437065 0.205906 0.875544
vn 0.437066 0.205906 0.875543
vn 0.966995 0.248281 -0.057243
vn 0.966995 0.248281 -0.057243
vn 0.966995 0.248281 -0.057243
vn 0.981486 0.119634 -0.149579
vn 0.981486 0.119634 -0.149579
vn 0.981485 0.119634 -0.149579
vn -0.262461 -0.805878 -0.530731
vn -0.262461 -0.805878 -0.530731
vn -0.262461 -0.805878 -0.530731
vn -0.591454 -0.799791 0.102546
vn -0.591455 -0.799791 0.102546
vn -0.591455 -0.799791 0.102546
vn -0.031582 -0.760105 0.649032
vn -0.031582 -0.760105 0.649032
vn -0.031582 -0.760105 0.649032
vn 0.441468 -0.796237 -0.413657
vn 0.441468 -0.796238 -0.413657
vn 0.441468 -0.796237 -0.413657
vn 0.262465 0.805876 0.530732
vn 0.262465 0.805876 0.530732
vn 0.262465 0.805876 0.530732
vn 0.262451 0.805881 0.530731
vn 0.262451 0.805881 0.530731
vn 0.262451 0.805881 0.530731
vn -0.159207 -0.174508 0.971700
vn -0.159207 -0.174508 0.971700
vn -0.159207 -0.174508 0.971700
vn -0.969187 -0.196127 0.149036
vn -0.969186 -0.196127 0.149036
vn -0.969186 -0.196127 0.149036
vn -0.591328 -0.799918 0.102286
vn -0.591328 -0.799918 0.102286
vn -0.591328 -0.799918 0.102286
vn -0.436882 -0.205962 -0.875622
vn -0.436882 -0.205962 -0.875622
vn -0.436882 -0.205962 -0.875622
vn -0.436846 -0.205943 -0.875644
vn -0.436846 -0.205943 -0.875645
vn -0.436846 -0.205943 -0.875644
vn -0.436875 -0.205947 -0.875629
vn -0.436875 -0.205947 -0.875629
vn -0.436875 -0.205947 -0.875629
vn 0.831906 -0.221253 0.508901
vn 0.831906 -0.221253 0.508901
vn 0.831906 -0.221253 0.508901
vn -0.159052 -0.174567 0.971714
vn -0.159052 -0.174567 0.971714
vn -0.159052 -0.174567 0.971714
vn -0.159274 -0.174391 0.971710
vn -0.159274 -0.174391 0.971710
vn -0.159274 -0.174391 0.971710
vn -0.262445 -0.805879 -0.530737
vn -0.262445 -0.805879 -0.530737
vn -0.262445 -0.805879 -0.530737
vn -0.262445 -0.805879 -0.530737
vn -0.262414 -0.805883 -0.530747
vn -0.262414 -0.805882 -0.530747
vn -0.262414 -0.805883 -0.530747
vn -0.591429 -0.799809 0.102549
vn -0.591429 -0.799809 0.102549
vn -0.591429 -0.799809 0.102549
vn -0.591396 -0.799833 0.102563
vn -0.591396 -0.799832 0.102563
vn -0.591396 -0.799832 0.102563
vn -0.591396 -0.799833 0.102563
vn 0.547463 -0.784312 0.291787
vn 0.547463 -0.784311 0.291787
vn 0.547463 -0.784312 0.291787
vn 0.143741 -0.801630 0.580283
vn 0.143741 -0.801630 0.580283
vn 0.143741 -0.801630 0.580283
vn 0.296191 -0.789469 0.537596
vn 0.296191 -0.789469 0.537596
vn 0.296191 -0.789469 0.537596
vn 0.547538 -0.784190 0.291972
vn 0.547538 -0.784190 0.291972
vn 0.547538 -0.784190 0.291972
vn 0.547544 -0.784191 0.291959
vn 0.547544 -0.784191 0.291959
vn 0.547544 -0.784191 0.291959
vn 0.547538 -0.784200 0.291945
vn 0.547539 -0.784200 0.291945
vn 0.547539 -0.784200 0.291945
vn 0.687740 -0.609160 0.394891
vn 0.687740 -0.609160 0.394891
vn 0.687740 -0.609160 0.394891
vn 0.604160 -0.671983 0.428286
vn 0.604160 -0.671984 0.428286
vn 0.604160 -0.671984 0.428286
vn -0.591416 -0.799822 0.102533
vn -0.591416 -0.799822 0.102533
vn -0.591416 -0.799822 0.102533
vn -0.591414 -0.799823 0.102533
vn -0.591414 -0.799823 0.102533
vn -0.591414 -0.799823 0.102533
vn -0.591391 -0.799830 0.102607
vn -0.591391 -0.799830 0.102607
vn -0.591391 -0.799830 0.102607
vn -0.591482 -0.800395 0.097555
vn -0.591482 -0.800395 0.097555
vn -0.591482 -0.800395 0.097555
vn -0.591407 -0.799827 0.102546
vn -0.591407 -0.799827 0.102546
vn -0.591407 -0.799827 0.102546
vn -0.591407 -0.799823 0.102575
vn -0.591407 -0.799823 0.102575
vn -0.591407 -0.799823 0.102575
vn -0.262491 -0.805883 -0.530708
vn -0.262491 -0.805883 -0.530708
vn -0.262491 -0.805883 -0.530708
vn -0.341905 -0.783029 -0.519582
vn -0.341905 -0.783029 -0.519582
vn -0.341905 -0.783029 -0.519582
vn -0.315746 -0.713000 -0.626048
vn -0.315746 -0.713000 -0.626048
vn -0.315746 -0.713000 -0.626048
vn 0.243788 -0.012189 -0.969752
vn 0.243788 -0.012189 -0.969752
vn 0.243788 -0.012189 -0.969752
vn 0.243788 -0.012189 -0.969752
s off
g polySurface40polySurface8
usemtl lambert2SG
f 4/1/1 1/2/2 2/3/3 3/4/4
f 3/4/5 2/3/6 5/5/7 6/6/8
f 5/7/9 7/8/10 8/9/11 6/10/12
f 7/8/13 9/11/14 10/12/15 8/9/16
f 9/13/17 11/14/18 12/15/19 10/16/20
f 12/15/21 11/14/22 13/17/23 14/18/24
f 15/19/25 16/20/26 14/21/27 13/22/28
f 4/23/29 16/20/30 15/19/31 1/24/32
f 4/1/33 3/4/34 17/25/35 18/26/36
f 17/25/37 3/4/38 6/6/39 19/27/40
f 19/28/41 6/10/42 8/9/43 20/29/44
f 20/29/45 8/9/46 10/12/47 21/30/48
f 21/31/49 10/16/50 12/15/51 22/32/52
f 12/15/53 14/18/54 23/33/55 22/32/56
f 24/34/57 23/35/58 14/21/59 16/20/60
f 18/36/61 24/34/62 16/20/63 4/23/64
f 25/37/65 26/38/66 27/39/67
f 25/37/68 17/25/69 19/27/70 28/40/71
f 28/41/72 19/28/73 20/29/74 30/42/75
f 30/42/76 20/29/77 21/30/78 29/43/79
f 29/44/80 21/31/81 22/32/82 31/45/83
f 22/32/84 23/33/85 31/45/86
f 24/34/87 18/36/88 27/46/89 32/47/90
f 15/48/91 13/49/92 1/50/93
f 35/51/94 33/52/95 26/53/96 34/54/97
f 25/55/98 36/56/99 34/54/100 26/53/101
f 25/55/102 28/57/103 37/58/104 36/56/105
f 28/57/106 33/59/107 35/60/108 37/58/109
f 39/61/110 35/51/111 34/54/112 38/62/113
f 35/51/114 39/61/115 40/63/116
f 36/56/117 41/64/118 38/62/119 34/54/120
f 41/64/121 36/56/122 37/58/123 42/65/124
f 40/66/125 42/65/126 37/58/127 35/60/128
f 38/62/129 41/64/130 80/67/131 43/68/132
f 42/65/133 40/66/134 79/69/135
f 27/39/136 26/38/137 44/70/138 45/71/139
f 47/72/140 33/73/141 30/42/142 46/74/143
f 46/74/144 30/42/145 29/43/146 48/75/147
f 48/76/148 29/44/149 31/45/150 49/77/151
f 13/49/152 11/78/153 9/79/154
f 9/79/155 7/80/156 5/81/157
f 5/81/158 2/82/159 1/50/160
f 9/79/161 5/81/162 1/50/163 13/49/164
f 30/42/165 33/73/166 28/41/167
f 23/35/168 24/34/169 32/47/170 31/83/171
f 31/83/172 32/47/173 50/84/174
f 33/52/175 51/85/176 26/53/177
f 33/52/178 47/86/179 51/85/180
f 51/85/181 44/87/182 26/53/183
f 39/61/184 38/62/185 43/68/186
f 41/64/187 42/65/188 79/69/189 80/67/190
f 32/47/191 27/46/192 45/88/193
f 52/89/194 53/90/195 54/91/196
f 52/92/197 54/93/198 55/94/199
f 52/92/200 55/94/201 56/95/202
f 52/89/203 56/96/204 57/97/205
f 52/89/206 57/97/207 53/90/208
f 53/90/209 58/98/210 59/99/211
f 62/100/212 55/94/213 60/101/214 61/102/215
f 56/95/216 62/100/217 63/103/218
f 57/97/219 63/103/220 58/98/221
f 59/99/222 54/91/223 53/90/224
f 55/94/225 54/104/226 64/105/227 60/101/228
f 62/100/229 56/95/230 55/94/231
f 63/103/232 57/97/233 56/106/234
f 58/98/235 53/90/236 57/97/237
f 65/107/238 63/103/239 62/100/240
f 65/107/241 58/98/242 63/103/243
f 65/107/244 59/99/245 58/98/246
f 66/108/247 67/109/248 68/110/249
f 66/111/250 68/112/251 69/113/252
f 66/111/253 69/113/254 70/114/255
f 64/115/256 71/116/257 67/109/258
f 64/115/259 67/109/260 66/117/261
f 67/109/262 72/118/263 73/119/264
f 68/110/265 73/119/266 74/120/267
f 69/113/268 74/121/269 75/122/270
f 73/119/271 68/110/272 67/109/273
f 74/121/274 69/113/275 68/112/276
f 75/122/277 70/114/278 69/113/279
f 60/123/280 70/114/281 61/124/282
f 67/109/283 76/125/284 72/118/285
f 76/125/286 67/109/287 71/116/288
f 81/126/289 74/120/290 73/119/291
f 81/126/292 75/122/293 74/121/294
f 81/126/295 77/127/296 75/122/297
f 81/126/298 73/119/299 72/118/300
f 66/111/301 60/123/302 64/128/303
f 60/123/304 66/111/305 70/114/306
f 78/129/307 75/122/308 77/127/309
f 61/102/310 78/130/311 62/100/312
f 77/131/313 51/132/314 47/133/315
f 76/134/316 71/135/317 59/99/318
f 71/135/319 64/136/320 54/91/321
f 71/135/322 54/91/323 59/99/324
f 76/125/325 77/127/326 72/118/327
f 75/122/328 61/124/329 70/114/330
f 61/124/331 75/122/332 78/129/333
f 45/137/334 76/134/335 59/99/336 65/107/337
f 44/138/338 76/139/339 45/140/340
f 62/100/341 78/130/342 46/141/343
f 62/100/344 46/141/345 48/142/346 49/143/347
f 43/144/348 72/118/349 39/145/350
f 79/146/351 40/147/352 77/127/353
f 77/127/354 81/126/355 79/146/356
f 80/148/357 79/146/358 81/126/359
f 81/126/360 72/118/361 80/148/362
f 80/148/363 72/118/364 43/144/365
f 39/145/366 77/127/367 40/147/368
f 72/118/369 77/127/370 39/145/371
f 46/141/372 77/131/373 47/133/374
f 77/131/375 46/141/376 78/130/377
f 65/107/378 31/149/379 50/150/380
f 65/107/381 50/150/382 32/151/383
f 65/107/384 62/100/385 49/143/386
f 65/107/387 49/143/388 31/149/389
f 45/137/390 65/107/391 32/151/392
f 76/139/393 44/138/394 77/131/395
f 44/138/396 51/132/397 77/131/398
f 27/39/399 18/26/400 17/25/401 25/37/402
